|positive|,|@PrincessSuperC Hai Cici tersayang! Cuma mau memberitaukan kalau saya cinta kamu! OH! Dan akan berkunjung secepatnya? Fantasi berkendari 5 Mei!!!!|
|positive|,|@Msdebramaye Saya mendengar tentang kontes itu! Selamat teman!!|
|positive|,|UNC!!! Pemenang NCAA!! Franklin St.: I ADA DISANA!! SANGAT SERU!!!!!! Ini adalah yang terbaik...yang pernah ada http://tinyurl.com/49955t3|
|neutral|,|apakah kamu membagikan #lelucon #kutipan #musik #foto atau #berita #artikel di #Facebook atau #Twitter?|
|neutral|,|Selamat malam #Twitter dan #TheLegionoftheFallen.  5:45am subuh!|
|neutral|,|Saya baru saja menyelesasikan lari sejauh 2.66 mi dengan Nike+ GPS. #nikeplus #makeitcount|
|negative|,|Hari yang mengecewakan. Menghadiri pameran mobil untuk mencari pendanaan, harganya malah lebih mahal|
|negative|,|Tidak ada lagi bom mobil Irish dengan orang Australia yang bisa minum seperti rockstars... kepala saya sakit.|
|negative|,|Baru saja terluka. Tangan ku sakit|
